module gitlab.com/zerodevs/task-steal/publisher

go 1.17

require (
	github.com/nats-io/nats.go v1.13.1-0.20211018182449-f2416a8b1483
	github.com/rs/zerolog v1.26.0
	gitlab.com/zerodevs/task-steal/event v0.0.0
)

replace gitlab.com/zerodevs/task-steal/event v0.0.0 => ../event

require (
	github.com/golang/protobuf v1.5.2 // indirect
	github.com/google/uuid v1.3.0 // indirect
	github.com/nats-io/nats-server/v2 v2.6.5 // indirect
	github.com/nats-io/nkeys v0.3.0 // indirect
	github.com/nats-io/nuid v1.0.1 // indirect
	golang.org/x/crypto v0.0.0-20210616213533-5ff15b29337e // indirect
	google.golang.org/protobuf v1.27.1 // indirect
)
